{
    "sensor_name": "bme680",
    "fields": {
        "temperature": {
            "type": "float",
            "range": {
                "min": -40.0,
                "max": 85.0
            },
            "unit": "celsius",
            "unit_symbol": "°C",
            "accuracy": "1"
        },
        "humidity": {
            "type": "float",
            "range": {
                "min": 0.0,
                "max": 100.0
            },
            "unit": "percentage",
            "unit_symbol": "rH",
            "accuracy": 3
        },
        "pressure": {
            "type": "float",
            "range": {
                "min": 300,
                "max": 1100
            },
            "unit": "hectopascal",
            "unit_sympbol": "hPa",
            "accuracy": 1
        },
        "gaz_resistance": {
            "type": "float"
        },
        "air_quality": {
            "type": "float",
            "range": {
                "min": 0.0,
                "max": 100.0
            },
            "unit": "percentage"
        }
    }
}